// Jest Snapshot v1, https://goo.gl/fbAQLP

exports[`MenuItem renders and matches snapshot 1`] = `
<div
  class="item"
>
  <span>
    <h2>
      test (123)
    </h2>
     
    <button
      class="btn btn--dark"
      type="button"
    >
      <p>
        add to order
      </p>
    </button>
  </span>
   
  <p>
    description
  </p>
</div>
`;
