// Jest Snapshot v1, https://goo.gl/fbAQLP

exports[`Review renders and matches snapshot 1`] = `
<div
  class="review"
>
  <img
    alt="#"
    class="review__img"
    src=""
  />
   
  <button
    class="btn"
    type="button"
  >
    <a
      href="#"
      target="_blank"
    >
      review
    </a>
  </button>
</div>
`;
